{
  "categories" : [ ],
  "resourceSpecs" : [ {
    "organizationCode" : "ESIMTMPL",
    "createdBy" : null,
    "createdDate" : null,
    "lastModifiedBy" : "symphonica-web",
    "lastModifiedDate" : "2021-12-21T15:35:04.019Z",
    "code" : "RSP",
    "version" : "2.4",
    "creationDate" : "2021-12-20T12:19:03.612Z",
    "lastUpdate" : "2021-12-20T12:20:22.014Z",
    "name" : "RSP",
    "description" : "Remote SIM Provisioning - Based on Technical Specification GSM Official Document SGP.22",
    "lifeCycleStatus" : "IN_TEST",
    "validFor" : {
      "startDateTime" : "2021-12-20T03:00:00.000Z",
      "endDateTime" : null
    },
    "categories" : [ ],
    "id" : "61d343c3860f464549bd7131",
    "resourceSpecRelationships" : [ ],
    "resourceSpecCharacteristics" : [ ],
    "baseType" : "LOGICAL",
    "type" : "NMS",
    "allowedToModifyOrDelete" : true
  } ],
  "serviceCatalogs" : [ ],
  "serviceSpecs" : [ {
    "organizationCode" : "ESIMTMPL",
    "createdBy" : null,
    "createdDate" : null,
    "lastModifiedBy" : "service-order-manager",
    "lastModifiedDate" : "2021-12-23T19:28:23.058Z",
    "code" : "ESIM",
    "version" : "1.0",
    "creationDate" : "2021-12-20T13:56:00.696Z",
    "lastUpdate" : "2021-12-23T19:28:22.921Z",
    "name" : "Embedded Subscriber Identity Module",
    "description" : "ESIM - Remote Sim Provisioning",
    "lifeCycleStatus" : "IN_TEST",
    "validFor" : {
      "startDateTime" : "2021-12-20T03:00:00.000Z",
      "endDateTime" : null
    },
    "categories" : [ ],
    "id" : "61d343c3860f464549bd712b",
    "type" : "CFS",
    "supportingActions" : [ {
      "name" : "New",
      "description" : "Fulfill a new Service",
      "action" : "ADD",
      "serviceSpecParams" : [ ],
      "defaultOrderType" : {
        "refId" : "61d343c3860f464549bd712c",
        "source" : "SYM-CATALOG",
        "name" : null
      },
      "orderTypes" : [ {
        "refId" : "61d343c3860f464549bd7122",
        "source" : "SYM-CATALOG",
        "name" : null
      }, {
        "refId" : "61d343c3860f464549bd712c",
        "source" : "SYM-CATALOG",
        "name" : null
      } ]
    }, {
      "name" : "Remove",
      "description" : "Remove a Service",
      "action" : "DELETE",
      "serviceSpecParams" : [ ],
      "defaultOrderType" : {
        "refId" : "61d343c3860f464549bd7140",
        "source" : "SYM-CATALOG",
        "name" : null
      },
      "orderTypes" : [ {
        "refId" : "61d343c3860f464549bd7140",
        "source" : "SYM-CATALOG",
        "name" : null
      }, {
        "refId" : "61d343c3860f464549bd7145",
        "source" : "SYM-CATALOG",
        "name" : null
      } ]
    } ],
    "resourceSpecRelationships" : [ ],
    "serviceSpecRelationships" : [ ],
    "serviceSpecCharacteristics" : [ {
      "name" : "eid",
      "description" : "Identification of the targeted eUICC",
      "valueType" : "STRING",
      "regex" : "",
      "subCharacteristic" : false,
      "refId" : "1",
      "configurable" : true,
      "validFor" : {
        "startDateTime" : "2021-12-20T03:00:00.000Z",
        "endDateTime" : null
      },
      "minCardinality" : 1,
      "maxCardinality" : 1,
      "unique" : false,
      "mutable" : true,
      "serviceSpecCharRelationships" : [ ],
      "serviceSpecCharacteristicValues" : [ ],
      "serviceSpecCharMapping" : [ ],
      "resourceSpecCharMapping" : [ ]
    }, {
      "name" : "iccid",
      "description" : "Identification of the Profile to download and install in the eUICC",
      "valueType" : "STRING",
      "regex" : "",
      "subCharacteristic" : false,
      "refId" : "2",
      "configurable" : true,
      "validFor" : {
        "startDateTime" : "2021-12-20T03:00:00.000Z",
        "endDateTime" : null
      },
      "minCardinality" : 0,
      "maxCardinality" : 1,
      "unique" : false,
      "mutable" : true,
      "serviceSpecCharRelationships" : [ ],
      "serviceSpecCharacteristicValues" : [ ],
      "serviceSpecCharMapping" : [ ],
      "resourceSpecCharMapping" : [ ]
    }, {
      "name" : "profileType",
      "description" : "Identification of the Profile Type to download and install in the eUICC",
      "valueType" : "STRING",
      "regex" : "",
      "subCharacteristic" : false,
      "refId" : "3",
      "configurable" : true,
      "validFor" : {
        "startDateTime" : "2021-12-20T03:00:00.000Z",
        "endDateTime" : null
      },
      "minCardinality" : 1,
      "maxCardinality" : 1,
      "unique" : false,
      "mutable" : true,
      "serviceSpecCharRelationships" : [ ],
      "serviceSpecCharacteristicValues" : [ ],
      "serviceSpecCharMapping" : [ ],
      "resourceSpecCharMapping" : [ ]
    } ],
    "allowedToModifyOrDelete" : true
  } ],
  "productSpecs" : [ ],
  "orderTypes" : [ {
    "organizationCode" : "ESIMTMPL",
    "createdBy" : null,
    "createdDate" : null,
    "lastModifiedBy" : "symphonica-web",
    "lastModifiedDate" : "2021-12-21T15:35:04.023Z",
    "id" : "61d343c3860f464549bd7122",
    "code" : "ACTIVATE",
    "description" : "Activate"
  }, {
    "organizationCode" : "ESIMTMPL",
    "createdBy" : null,
    "createdDate" : null,
    "lastModifiedBy" : "symphonica-web",
    "lastModifiedDate" : "2021-12-21T15:35:04.029Z",
    "id" : "61d343c3860f464549bd7126",
    "code" : "CEASE",
    "description" : "Cease a Service"
  }, {
    "organizationCode" : "ESIMTMPL",
    "createdBy" : null,
    "createdDate" : null,
    "lastModifiedBy" : "symphonica-web",
    "lastModifiedDate" : "2021-12-21T15:35:04.031Z",
    "id" : "61d343c3860f464549bd7127",
    "code" : "CHANGE",
    "description" : "Change a Service"
  }, {
    "organizationCode" : "ESIMTMPL",
    "createdBy" : null,
    "createdDate" : null,
    "lastModifiedBy" : "symphonica-web",
    "lastModifiedDate" : "2021-12-21T15:35:04.032Z",
    "id" : "61d343c3860f464549bd712e",
    "code" : "CHANGE_EQUIPMENT",
    "description" : "Change Equipment"
  }, {
    "organizationCode" : "ESIMTMPL",
    "createdBy" : null,
    "createdDate" : null,
    "lastModifiedBy" : "symphonica-web",
    "lastModifiedDate" : "2021-12-21T15:35:04.034Z",
    "id" : "61d343c3860f464549bd712f",
    "code" : "CHANGE_OWNER",
    "description" : "Change Owner"
  }, {
    "organizationCode" : "ESIMTMPL",
    "createdBy" : null,
    "createdDate" : null,
    "lastModifiedBy" : "symphonica-web",
    "lastModifiedDate" : "2021-12-21T15:35:04.037Z",
    "id" : "61d343c3860f464549bd7136",
    "code" : "CHANGE_SERVICE",
    "description" : "Change Service Configuration"
  }, {
    "organizationCode" : "ESIMTMPL",
    "createdBy" : null,
    "createdDate" : null,
    "lastModifiedBy" : "symphonica-web",
    "lastModifiedDate" : "2021-12-21T15:35:04.039Z",
    "id" : "61d343c3860f464549bd712c",
    "code" : "CREATE",
    "description" : "Allocate a New Service"
  }, {
    "organizationCode" : "ESIMTMPL",
    "createdBy" : null,
    "createdDate" : null,
    "lastModifiedBy" : "symphonica-web",
    "lastModifiedDate" : "2021-12-21T15:35:04.041Z",
    "id" : "61d343c3860f464549bd7145",
    "code" : "DEACTIVATE",
    "description" : "Deactivate"
  }, {
    "organizationCode" : "ESIMTMPL",
    "createdBy" : null,
    "createdDate" : null,
    "lastModifiedBy" : "symphonica-web",
    "lastModifiedDate" : "2021-12-21T15:35:04.043Z",
    "id" : "61d343c3860f464549bd7146",
    "code" : "DISCONNECT",
    "description" : "Disconnect a Service"
  }, {
    "organizationCode" : "ESIMTMPL",
    "createdBy" : null,
    "createdDate" : null,
    "lastModifiedBy" : "symphonica-web",
    "lastModifiedDate" : "2021-12-21T15:35:04.044Z",
    "id" : "61d343c3860f464549bd713d",
    "code" : "MOVE",
    "description" : "Move"
  }, {
    "organizationCode" : "ESIMTMPL",
    "createdBy" : null,
    "createdDate" : null,
    "lastModifiedBy" : "symphonica-web",
    "lastModifiedDate" : "2021-12-21T15:35:04.046Z",
    "id" : "61d343c3860f464549bd713e",
    "code" : "NEW",
    "description" : "New"
  }, {
    "organizationCode" : "ESIMTMPL",
    "createdBy" : null,
    "createdDate" : null,
    "lastModifiedBy" : "symphonica-web",
    "lastModifiedDate" : "2021-12-21T15:35:04.047Z",
    "id" : "61d343c3860f464549bd713b",
    "code" : "PROVIDE",
    "description" : "Provide a New Service"
  }, {
    "organizationCode" : "ESIMTMPL",
    "createdBy" : null,
    "createdDate" : null,
    "lastModifiedBy" : "symphonica-web",
    "lastModifiedDate" : "2021-12-21T15:35:04.049Z",
    "id" : "61d343c3860f464549bd713c",
    "code" : "RESUME",
    "description" : "Resume"
  }, {
    "organizationCode" : "ESIMTMPL",
    "createdBy" : null,
    "createdDate" : null,
    "lastModifiedBy" : "symphonica-web",
    "lastModifiedDate" : "2021-12-21T15:35:04.050Z",
    "id" : "61d343c3860f464549bd7141",
    "code" : "RESUME_SERVICE",
    "description" : "Resume Service"
  }, {
    "organizationCode" : "ESIMTMPL",
    "createdBy" : null,
    "createdDate" : null,
    "lastModifiedBy" : "symphonica-web",
    "lastModifiedDate" : "2021-12-21T15:35:04.052Z",
    "id" : "61d343c3860f464549bd7142",
    "code" : "SUSPEND",
    "description" : "Suspend a Service"
  }, {
    "organizationCode" : "ESIMTMPL",
    "createdBy" : null,
    "createdDate" : null,
    "lastModifiedBy" : "symphonica-web",
    "lastModifiedDate" : "2021-12-21T15:35:04.053Z",
    "id" : "61d343c3860f464549bd713f",
    "code" : "SUSPEND_SERVICE",
    "description" : "Suspend Service"
  }, {
    "organizationCode" : "ESIMTMPL",
    "createdBy" : null,
    "createdDate" : null,
    "lastModifiedBy" : "symphonica-web",
    "lastModifiedDate" : "2021-12-21T15:35:04.055Z",
    "id" : "61d343c3860f464549bd7140",
    "code" : "TERMINATE",
    "description" : "Terminate a Service"
  } ],
  "sources" : [ {
    "organizationCode" : "ESIMTMPL",
    "createdBy" : null,
    "createdDate" : null,
    "lastModifiedBy" : "symphonica-web",
    "lastModifiedDate" : "2021-12-21T14:41:40.088Z",
    "id" : "61d343c3860f464549bd712d",
    "code" : "BSS",
    "description" : "Business Support System",
    "entities" : [ "PARTY", "ACCOUNT", "PRODUCT" ]
  }, {
    "organizationCode" : "ESIMTMPL",
    "createdBy" : null,
    "createdDate" : null,
    "lastModifiedBy" : "symphonica-web",
    "lastModifiedDate" : "2021-12-21T14:41:40.091Z",
    "id" : "61d343c3860f464549bd7134",
    "code" : "SYM-BPME",
    "description" : "SYM-BPME",
    "entities" : [ ]
  }, {
    "organizationCode" : "ESIMTMPL",
    "createdBy" : null,
    "createdDate" : null,
    "lastModifiedBy" : "symphonica-web",
    "lastModifiedDate" : "2021-12-21T14:41:40.097Z",
    "id" : "61d343c3860f464549bd7130",
    "code" : "SYM-CATALOG",
    "description" : "SYM-CATALOG",
    "entities" : [ ]
  }, {
    "organizationCode" : "ESIMTMPL",
    "createdBy" : null,
    "createdDate" : null,
    "lastModifiedBy" : "symphonica-web",
    "lastModifiedDate" : "2021-12-21T14:41:40.099Z",
    "id" : "61d343c3860f464549bd7137",
    "code" : "SYM-INVENTORY",
    "description" : "SYM-INVENTORY",
    "entities" : [ "LOGICAL_RESOURCE", "PHYSICAL_RESOURCE", "PRODUCT", "PRODUCT_RELATIONSHIP", "SERVICE", "SERVICE_ORDER" ]
  }, {
    "organizationCode" : "ESIMTMPL",
    "createdBy" : null,
    "createdDate" : null,
    "lastModifiedBy" : "symphonica-web",
    "lastModifiedDate" : "2021-12-21T14:41:40.104Z",
    "id" : "61d343c3860f464549bd712a",
    "code" : "SYM-PARTY",
    "description" : "SYM-PARTY",
    "entities" : [ "ACCOUNT", "PARTY" ]
  }, {
    "organizationCode" : "ESIMTMPL",
    "createdBy" : null,
    "createdDate" : null,
    "lastModifiedBy" : "symphonica-web",
    "lastModifiedDate" : "2021-12-21T14:41:40.110Z",
    "id" : "61d343c3860f464549bd7135",
    "code" : "SYM-POM",
    "description" : "SYM-POM",
    "entities" : [ "PRODUCT_ORDER" ]
  }, {
    "organizationCode" : "ESIMTMPL",
    "createdBy" : null,
    "createdDate" : null,
    "lastModifiedBy" : "symphonica-web",
    "lastModifiedDate" : "2021-12-21T14:41:40.119Z",
    "id" : "61d343c3860f464549bd7133",
    "code" : "SYM-ROM",
    "description" : "SYM-ROM",
    "entities" : [ "CONNECTOR_CLUSTER", "INTERFACE_ORDER", "LOGIN_LOGOUT_TEST_ORDER_SPECIFICATION", "ORDER_ITEM", "ORDER_SPECIFICATION_IMPLEMENTATION", "PARAMETER_TRANSLATION", "RESOURCE_COMMAND", "RESOURCE_CONSTANT", "RESOURCE_ORDER", "RESOURCE_ORDER_SPECIFICATION" ]
  }, {
    "organizationCode" : "ESIMTMPL",
    "createdBy" : null,
    "createdDate" : null,
    "lastModifiedBy" : "symphonica-web",
    "lastModifiedDate" : "2021-12-21T14:41:40.133Z",
    "id" : "61d343c3860f464549bd7132",
    "code" : "SYM-SOM",
    "description" : "SYM-SOM",
    "entities" : [ "SERVICE_ORDER" ]
  }, {
    "organizationCode" : "ESIMTMPL",
    "createdBy" : null,
    "createdDate" : null,
    "lastModifiedBy" : "symphonica-web",
    "lastModifiedDate" : "2021-12-21T14:41:40.141Z",
    "id" : "61d343c3860f464549bd7138",
    "code" : "SYM-TEST",
    "description" : "SYM-TEST",
    "entities" : [ "BIRTH_CERTIFICATE", "SERVICE_TEST", "SERVICE_TEST_SPECIFICATION" ]
  }, {
    "organizationCode" : "ESIMTMPL",
    "createdBy" : null,
    "createdDate" : null,
    "lastModifiedBy" : "symphonica-web",
    "lastModifiedDate" : "2021-12-21T14:41:40.143Z",
    "id" : "61d343c3860f464549bd7129",
    "code" : "SYM-WOM",
    "description" : "SYM-WOM",
    "entities" : [ "WORKFLOW_ORDER" ]
  } ],
  "extraValues" : [ ],
  "regions" : [ ]
}