{
  "vendorModelVersions" : [ {
    "organizationCode" : "ESIMTMPL",
    "createdBy" : null,
    "createdDate" : null,
    "lastModifiedBy" : "symphonica-web",
    "lastModifiedDate" : "2021-12-21T15:35:03.817Z",
    "id" : "61d343c3860f464549bd7144",
    "vendor" : "INTRAWAY",
    "model" : null,
    "version" : null,
    "description" : "Intraway Corporation"
  }, {
    "organizationCode" : "ESIMTMPL",
    "createdBy" : null,
    "createdDate" : null,
    "lastModifiedBy" : "symphonica-web",
    "lastModifiedDate" : "2021-12-21T15:35:03.821Z",
    "id" : "61d343c3860f464549bd7148",
    "vendor" : "INTRAWAY",
    "model" : "SM-DP_plus",
    "version" : null,
    "description" : "Subscription Manager Data Preparation entity (Operator -- SM-DP+)"
  }, {
    "organizationCode" : "ESIMTMPL",
    "createdBy" : null,
    "createdDate" : null,
    "lastModifiedBy" : "symphonica-web",
    "lastModifiedDate" : "2021-12-21T15:35:03.824Z",
    "id" : "61d343c3860f464549bd7143",
    "vendor" : "INTRAWAY",
    "model" : "SM-DP_plus",
    "version" : "2.4",
    "description" : "GSM Association – RSP (Remote Sim Provisioning) Technical Specification v2.4"
  } ],
  "logicalResources" : [ {
    "organizationCode" : "ESIMTMPL",
    "createdBy" : null,
    "createdDate" : null,
    "lastModifiedBy" : "connector",
    "lastModifiedDate" : "2021-12-21T15:52:41.009Z",
    "id" : "61d343c3860f464549bd713a",
    "publicIdentifier" : "SM-DP_ES2-plus_Mock",
    "region" : null,
    "name" : "SM-DP_ES2-plus_Mock",
    "description" : "Subscription Manager Data Preparation Entity - ES2+ Interface (Operator -- SM-DP+) - Based on GSM Official Document SGP.22 - RSP Technical Specification v2.4",
    "category" : "NMS",
    "baseType" : "LOGICAL",
    "type" : "NMS",
    "lifecycleState" : "OPERATING",
    "version" : "2.4",
    "validFor" : {
      "startDateTime" : "2021-12-20T03:00:00.000Z",
      "endDateTime" : null
    },
    "notes" : [ ],
    "relatedParty" : [ ],
    "resourceCharacteristics" : [ ],
    "resourceSpecification" : {
      "refId" : "61d343c3860f464549bd7131",
      "source" : "SYM-CATALOG",
      "name" : "RSP",
      "version" : null,
      "organizationCode" : null
    },
    "place" : {
      "name" : "",
      "role" : "",
      "address" : {
        "streetName" : "",
        "streetType" : "",
        "streetNumber" : "",
        "streetNumberSuffix" : "",
        "streetNumberLastSuffix" : "",
        "streetSuffix" : "",
        "postCode" : "",
        "locality" : "",
        "city" : "",
        "stateOrProvince" : "",
        "country" : ""
      },
      "location" : {
        "type" : "Feature",
        "geometry" : null,
        "properties" : { }
      },
      "externalRef" : null
    },
    "orderExecutionMode" : "LAUNCHED",
    "ipAddress" : "172.18.0.1",
    "hostname" : null,
    "useIpV6" : false,
    "vendorModelVersion" : {
      "refId" : "61d343c3860f464549bd7143",
      "source" : "SYM-INVENTORY",
      "name" : null,
      "vendor" : "INTRAWAY",
      "model" : "SM-DP_plus",
      "version" : "2.4"
    },
    "fallbackResources" : [ ],
    "connectionInterfaceCli" : null,
    "connectionInterfaceHttp" : {
      "port" : 8032,
      "persistent" : false,
      "minConnections" : 1,
      "maxConnections" : 2,
      "timeout" : 0,
      "rateLimit" : 0,
      "expireTime" : 0,
      "login" : null,
      "password" : null,
      "testable" : true,
      "testOnConnect" : false,
      "keepAlive" : 0,
      "status" : "UNKNOWN",
      "lastErrors" : null,
      "useSsl" : false,
      "relativePath" : "/",
      "verifySslCertificate" : false
    },
    "connectionInterfaceLdap" : null,
    "connectionInterfaceSnmp" : null,
    "connectionInterfaceSql" : null,
    "isServiceComposite" : false,
    "nms" : null,
    "resourceRelationship" : [ ],
    "interfaceStatus" : "UP",
    "ifaceCount" : 1
  } ],
  "physicalResources" : [ ]
}
