{
	"info": {
		"_postman_id": "d38622bb-fd16-474a-b9ee-14dcf39b3270",
		"name": "POC Hello World - RSP SM-DP+/ES2+",
		"schema": "https://schema.getpostman.com/json/collection/v2.1.0/collection.json"
	},
	"item": [
		{
			"name": "0.- LoginSSO",
			"event": [
				{
					"listen": "test",
					"script": {
						"type": "text/javascript",
						"exec": [
							"postman.setEnvironmentVariable(\"TOKENSSO\", JSON.parse(responseBody)._embedded.session.token);",
							""
						]
					}
				}
			],
			"request": {
				"method": "POST",
				"header": [
					{
						"key": "Content-Type",
						"value": "application/json"
					}
				],
				"body": {
					"mode": "raw",
					"raw": "{\r\n  \"username\": \"{{user}}\",\r\n  \"password\": \"{{pass}}\",\r\n  \"source\": \"{{origin}}\",\r\n  \"idOrigin\": \"0.0.0.0\"\r\n}"
				},
				"url": {
					"raw": "{{URL_Symphonica}}/sso_rest/authentication/login",
					"host": [
						"{{URL_Symphonica}}"
					],
					"path": [
						"sso_rest",
						"authentication",
						"login"
					]
				}
			},
			"response": []
		},
		{
			"name": "1A.- Add - ESim CFS - empty iccid",
			"event": [
				{
					"listen": "test",
					"script": {
						"exec": [
							""
						],
						"type": "text/javascript"
					}
				}
			],
			"request": {
				"method": "POST",
				"header": [
					{
						"key": "X-Organization-Code",
						"value": "{{OrganizationCode}}"
					},
					{
						"key": "X-Authorization",
						"value": "{{TOKENSSO}}"
					},
					{
						"key": "Content-Type",
						"name": "Content-Type",
						"type": "text",
						"value": "application/iway-service-order-post-v1-hal+json"
					}
				],
				"body": {
					"mode": "raw",
					"raw": "{\n    \"externalId\": \"empty iccid\",\n    \"priority\": \"1\",\n    \"category\": \"ESIM ADD CFS\",\n    \"source\": \"POSTMAN\",\n    \"orderType\": \"CREATE\",\n    \"notes\": [],\n    \"orderItems\": [\n        {\n            \"id\": \"1\",\n            \"action\": \"New\",\n            \"service\": {\n                \"serviceSpecification\": {\n                    \"name\": \"ESIM\",\n                    \"code\": \"ESIM\",\n                    \"version\": \"1.0\"\n                },\n                \"category\": \"CFS\",\n                \"characteristics\": [\n                    {\n                        \"name\": \"eid\",\n                        \"value\": \"eid_1234\"\n                    },\n                    {\n                        \"name\": \"iccid\",\n                        \"value\": \"\"\n                    },\n                    {\n                        \"name\": \"profileType\",\n                        \"value\": \"profileType\"\n                    }\n                ],\n                \"publicIdentifier\": \"ESIM-1234\"\n            }\n        }\n    ],\n    \"relatedParty\": [\n        {\n            \"id\": \"ESIM\",\n            \"source\": \"BSS\",\n            \"name\": \"ESIM\",\n            \"role\": \"customer\"\n        }\n    ]\n}",
					"options": {
						"raw": {
							"language": "json"
						}
					}
				},
				"url": {
					"raw": "{{URL_Symphonica}}/service-order-manager/api/service-orders/",
					"host": [
						"{{URL_Symphonica}}"
					],
					"path": [
						"service-order-manager",
						"api",
						"service-orders",
						""
					]
				}
			},
			"response": []
		},
		{
			"name": "1B.- Add - ESim CFS - complete iccid",
			"event": [
				{
					"listen": "test",
					"script": {
						"exec": [
							""
						],
						"type": "text/javascript"
					}
				}
			],
			"request": {
				"method": "POST",
				"header": [
					{
						"key": "X-Organization-Code",
						"value": "{{OrganizationCode}}"
					},
					{
						"key": "X-Authorization",
						"value": "{{TOKENSSO}}"
					},
					{
						"key": "Content-Type",
						"name": "Content-Type",
						"type": "text",
						"value": "application/iway-service-order-post-v1-hal+json"
					}
				],
				"body": {
					"mode": "raw",
					"raw": "{\n    \"externalId\": \"complete iccid\",\n    \"priority\": \"1\",\n    \"category\": \"ESIM ADD CFS\",\n    \"source\": \"POSTMAN\",\n    \"orderType\": \"CREATE\",\n    \"notes\": [],\n    \"orderItems\": [\n        {\n            \"id\": \"1\",\n            \"action\": \"New\",\n            \"service\": {\n                \"serviceSpecification\": {\n                    \"name\": \"ESIM\",\n                    \"code\": \"ESIM\",\n                    \"version\": \"1.0\"\n                },\n                \"category\": \"CFS\",\n                \"characteristics\": [\n                    {\n                        \"name\": \"eid\",\n                        \"value\": \"eid_1234\"\n                    },\n                    {\n                        \"name\": \"iccid\",\n                        \"value\": \"89111111111111111112\"\n                    },\n                    {\n                        \"name\": \"profileType\",\n                        \"value\": \"profileType\"\n                    }\n                ],\n                \"publicIdentifier\": \"ESIM-1234\"\n            }\n        }\n    ],\n    \"relatedParty\": [\n        {\n            \"id\": \"ESIM\",\n            \"source\": \"BSS\",\n            \"name\": \"ESIM\",\n            \"role\": \"customer\"\n        }\n    ]\n}",
					"options": {
						"raw": {
							"language": "json"
						}
					}
				},
				"url": {
					"raw": "{{URL_Symphonica}}/service-order-manager/api/service-orders/",
					"host": [
						"{{URL_Symphonica}}"
					],
					"path": [
						"service-order-manager",
						"api",
						"service-orders",
						""
					]
				}
			},
			"response": []
		},
		{
			"name": "2.- Remove - ESim CFS",
			"event": [
				{
					"listen": "test",
					"script": {
						"exec": [
							""
						],
						"type": "text/javascript"
					}
				}
			],
			"request": {
				"method": "POST",
				"header": [
					{
						"key": "X-Organization-Code",
						"value": "{{OrganizationCode}}"
					},
					{
						"key": "X-Authorization",
						"value": "{{TOKENSSO}}"
					},
					{
						"key": "Content-Type",
						"name": "Content-Type",
						"type": "text",
						"value": "application/iway-service-order-post-v1-hal+json"
					}
				],
				"body": {
					"mode": "raw",
					"raw": "{\n    \"externalId\": \"Remove CFS\",\n    \"priority\": \"1\",\n    \"category\": \"ESIM ADD CFS\",\n    \"source\": \"POSTMAN\",\n    \"orderType\": \"TERMINATE\",\n    \"notes\": [],\n    \"orderItems\": [\n        {\n            \"id\": \"1\",\n            \"action\": \"Remove\",\n            \"service\": {\n                \"serviceSpecification\": {\n                    \"name\": \"ESIM\",\n                    \"code\": \"ESIM\",\n                    \"version\": \"1.0\"\n                },\n                \"category\": \"CFS\",\n                \"publicIdentifier\": \"ESIM-1234\"\n            }\n        }\n    ],\n    \"relatedParty\": [\n        {\n            \"id\": \"ESIM\",\n            \"source\": \"BSS\",\n            \"name\": \"ESIM\",\n            \"role\": \"customer\"\n        }\n    ]\n}",
					"options": {
						"raw": {
							"language": "json"
						}
					}
				},
				"url": {
					"raw": "{{URL_Symphonica}}/service-order-manager/api/service-orders/",
					"host": [
						"{{URL_Symphonica}}"
					],
					"path": [
						"service-order-manager",
						"api",
						"service-orders",
						""
					]
				}
			},
			"response": []
		}
	]
}